{
  "content": [
    {
      "what": "[data-content-id=0] .content_tab__title span",
      "data": "лечение десен"
    },
    {
      "what": "[data-content-id=0] .content_tab__subtitle span",
      "data": "Немного больше текста, живое описание услуги, текст. Еще одно! Кратенькое, живое описание услуги, что это такое, для тех кто вообще не разбирается и ему болит сейчас"
    },
    {
      "what": "[data-content-id=0] .content_tab__links",
      "data": " "
    }
  ],
  "replaces": [
    {
      "what": "[data-content-id=0] .content_tab__button .btn",
      "data": "<a class='btn btn_red' href='#1'>к услуге 1<div class='btn__icon'></div></a>"
    },
    {
      "what": "[data-content-id=0] .content_tab__video .video",
      "data": "<video class='video' src='video/inno-1.mp4' loop='loop' preload='none' autoplay muted></video>"
    }
  ]
}